Hardware description/Risc-V-Memory/Risc-V-Memory.sim/sim_1/behav/xsim/resultados_memo.vcd
$date
   Thu Sep 11 00:21:47 2025
$end
$version
  2018.3
$end
$timescale
  1ps
$end
$scope module tb_memory $end
$var reg 1 ! clk $end
$var reg 1 " we $end
$var reg 8 # addr [7:0] $end
$var reg 8 $ data_in [7:0] $end
$var wire 32 % data_out [31:0] $end
$var integer 32 & i $end
$scope module MyRAM $end
$var wire 1 ' clk $end
$var wire 1 ( we $end
$var wire 7 ) addr [6:0] $end
$var wire 8 * data_in [7:0] $end
$var reg 32 + data_out [31:0] $end
$var parameter 32 , N [31:0] $end
$var parameter 32 - M [31:0] $end
$upscope $end
$upscope $end
$enddefinitions $end
#0
$dumpvars
0!
0"
b0 #
b0 $
b11011111000000000000000000000001 %
b0 &
0'
0(
b0 )
b0 *
b11011111000000000000000000000001 +
b111 ,
b1000 -
$end
#5000
1!
1'
#10000
0!
b100 #
b1101111000000000000000000001000 %
b100 &
0'
b100 )
b1101111000000000000000000001000 +
#15000
1!
1'
#20000
0!
b1000 #
b10011000001010000000001000000 %
b1000 &
0'
b1000 )
b10011000001010000000001000000 +
#25000
1!
1'
#30000
0!
b1100 #
b10010011000001011110000001000000 %
b1100 &
0'
b1100 )
b10010011000001011110000001000000 +
#35000
1!
1'
#40000
0!
b10000 #
b10110011000001100000000000000000 %
b10000 &
0'
b10000 )
b10110011000001100000000000000000 +
#45000
1!
1'
#50000
0!
b10100 #
b1100011000010001011010100000100 %
b10100 &
0'
b10100 )
b1100011000010001011010100000100 +
#55000
1!
1'
#60000
0!
b11000 #
b10011000001100001010100000000 %
b11000 &
0'
b11000 )
b10011000001100001010100000000 +
#65000
1!
1'
#70000
0!
b11100 #
b11000011100000010100000000 %
b11100 &
0'
b11100 )
b11000011100000010100000000 +
#75000
1!
1'
#80000
0!
b100000 #
b10000011000011100000011000000000 %
b100000 &
0'
b100000 )
b10000011000011100000011000000000 +
#85000
1!
1'
#90000
0!
b100100 #
b1100011110100001100111000000011 %
b100100 &
0'
b100100 )
b1100011110100001100111000000011 +
#95000
1!
1'
#100000
0!
b101000 #
b100011000000001100011000000001 %
b101000 &
0'
b101000 )
b100011000000001100011000000001 +
#105000
1!
1'
#110000
0!
b101100 #
b100011000000001101010100000001 %
b101100 &
0'
b101100 )
b100011000000001101010100000001 +
#115000
1!
1'
#120000
0!
b110000 #
b10010011100001100001010100000000 %
b110000 &
0'
b110000 )
b10010011100001100001010100000000 +
#125000
1!
1'
#130000
0!
b110100 #
b10011000001010001010100000000 %
b110100 &
0'
b110100 )
b10011000001010001010100000000 +
#135000
1!
1'
#140000
0!
b111000 #
b1101111111100001001111111111011 %
b111000 &
0'
b111000 )
b1101111111100001001111111111011 +
#145000
1!
1'
#150000
0!
b111100 #
b11100011100111010000011011111000 %
b111100 &
0'
b111100 )
b11100011100111010000011011111000 +
#155000
1!
1'
#160000
0!
b1000000 #
b1100111100000000000000000000000 %
b1000000 &
0'
b1000000 )
b1100111100000000000000000000000 +
#165000
1!
1'
#170000
b1000100 &
